{
 "data": [
  {
   "id": "11eaebe49772504bb61e0cc47a2ae324",
   "owner_id": "132125474",
   "site_id": "897193261766985705",
   "site_product_id": "151",
   "visibility": "visible",
   "visibility_tl": "Visible",
   "visibility_locked": false,
   "name": "Spicy Pork Belly Bowl",
   "short_description": "Pork belly cooked with our special Gochujang sauce. Slightly Spicy. \nSelect your choice of base, Banchan(Korean side dish), topping and sauce.",
   "variation_type": "3",
   "product_type": "food",
   "product_type_details": {
    "calorie_count": "",
    "dietary_preferences": ["nut-free"],
    "dietary_preferences_tl": ["Nut-free"],
    "ingredients": [],
    "ingredients_tl": []
   },
   "taxable": true,
   "required_feature_to_sell": null,
   "min_prep_time": null,
   "min_prep_time_duration_iso8601": null,
   "site_shipping_box_id": null,
   "site_link": "product/spicy-pork-belly-bowl/151",
   "permalink": null,
   "seo_page_description": null,
   "seo_page_title": null,
   "seo_product_image_id": null,
   "og_title": null,
   "og_description": null,
   "avg_rating": null,
   "avg_rating_all": null,
   "inventory": {
    "total": 0,
    "lowest": 0,
    "enabled": false,
    "marked_sold_out_at_all_existing_locations": false,
    "marked_sold_out_skus_count": 0
   },
   "measurement_unit_abbreviation": null,
   "price": {
    "high": 14.95,
    "high_with_modifiers": 14.95,
    "high_formatted": "$14.95",
    "high_formatted_with_modifiers": "$14.95",
    "high_subunits": 1495,
    "low": 14.95,
    "low_with_modifiers": 14.95,
    "low_formatted": "$14.95",
    "low_formatted_with_modifiers": "$14.95",
    "low_subunits": 1495,
    "regular_high": 14.95,
    "regular_high_with_modifiers": 14.95,
    "regular_high_formatted": "$14.95",
    "regular_high_formatted_with_modifiers": "$14.95",
    "regular_high_subunits": 1495,
    "regular_low": 14.95,
    "regular_low_with_modifiers": 14.95,
    "regular_low_formatted": "$14.95",
    "regular_low_formatted_with_modifiers": "$14.95",
    "regular_low_subunits": 1495
   },
   "on_sale": false,
   "is_alcoholic": false,
   "import_source": null,
   "per_order_max": null,
   "created_date": "2020-08-31T23:49:21+00:00",
   "updated_date": "2022-05-02T00:35:39+00:00",
   "badges": { "low_stock": false, "out_of_stock": false, "on_sale": false },
   "thumbnail": {
    "data": {
     "id": "11eb09bed4b1ab1fb61d0cc47a2ae6a4",
     "owner_id": "132125474",
     "site_id": "897193261766985705",
     "site_product_image_id": "4",
     "url": "/uploads/1/3/2/1/132125474/s897193261766985705_p151_i4_w1538.png",
     "absolute_url": "https://matko-103991.weebly.com/uploads/1/3/2/1/132125474/s897193261766985705_p151_i4_w1538.png",
     "urls": {
      "80": "/uploads/1/3/2/1/132125474/s897193261766985705_p151_i4_w1538.png?width=80",
      "160": "/uploads/1/3/2/1/132125474/s897193261766985705_p151_i4_w1538.png?width=160",
      "320": "/uploads/1/3/2/1/132125474/s897193261766985705_p151_i4_w1538.png?width=320",
      "640": "/uploads/1/3/2/1/132125474/s897193261766985705_p151_i4_w1538.png?width=640",
      "1280": "/uploads/1/3/2/1/132125474/s897193261766985705_p151_i4_w1538.png?width=1280",
      "1538": "/uploads/1/3/2/1/132125474/s897193261766985705_p151_i4_w1538.png"
     },
     "width": 1538,
     "height": 1264,
     "format": "png",
     "created_at": "2020-10-08T23:34:38+00:00",
     "updated_at": "2020-10-08T23:34:38+00:00",
     "absolute_urls": {
      "80": "https://matko-103991.weebly.com/uploads/1/3/2/1/132125474/s897193261766985705_p151_i4_w1538.png?width=80",
      "160": "https://matko-103991.weebly.com/uploads/1/3/2/1/132125474/s897193261766985705_p151_i4_w1538.png?width=160",
      "320": "https://matko-103991.weebly.com/uploads/1/3/2/1/132125474/s897193261766985705_p151_i4_w1538.png?width=320",
      "640": "https://matko-103991.weebly.com/uploads/1/3/2/1/132125474/s897193261766985705_p151_i4_w1538.png?width=640",
      "1280": "https://matko-103991.weebly.com/uploads/1/3/2/1/132125474/s897193261766985705_p151_i4_w1538.png?width=1280",
      "1538": "https://matko-103991.weebly.com/uploads/1/3/2/1/132125474/s897193261766985705_p151_i4_w1538.png"
     }
    }
   },
   "placeholder_image": {
    "data": {
     "placeholder": true,
     "url": "/images/commerce/store-app/app/universal_product_placeholder.png",
     "absolute_url": "cdn3.editmysite.com/images/commerce/store-app/app/universal_product_placeholder.png"
    }
   }
  },
  {
   "id": "11eaebe3c21b3a1bb61e0cc47a2ae324",
   "owner_id": "132125474",
   "site_id": "897193261766985705",
   "site_product_id": "150",
   "visibility": "visible",
   "visibility_tl": "Visible",
   "visibility_locked": false,
   "name": "Beef Bulgogi Bowl",
   "short_description": "Crowd's favorite. \nSweet and savory thinly sliced beef. Select your choice of base, Banchan(Korean side dish), topping and sauce.",
   "variation_type": "3",
   "product_type": "food",
   "product_type_details": {
    "calorie_count": "",
    "dietary_preferences": ["nut-free"],
    "dietary_preferences_tl": ["Nut-free"],
    "ingredients": [],
    "ingredients_tl": []
   },
   "taxable": true,
   "required_feature_to_sell": null,
   "min_prep_time": null,
   "min_prep_time_duration_iso8601": null,
   "site_shipping_box_id": null,
   "site_link": "product/bulgogi_bowl/150",
   "permalink": "bulgogi_bowl",
   "seo_page_description": null,
   "seo_page_title": null,
   "seo_product_image_id": null,
   "og_title": null,
   "og_description": null,
   "avg_rating": null,
   "avg_rating_all": null,
   "inventory": {
    "total": 0,
    "lowest": 0,
    "enabled": false,
    "marked_sold_out_at_all_existing_locations": false,
    "marked_sold_out_skus_count": 0
   },
   "measurement_unit_abbreviation": null,
   "price": {
    "high": 14.95,
    "high_with_modifiers": 14.95,
    "high_formatted": "$14.95",
    "high_formatted_with_modifiers": "$14.95",
    "high_subunits": 1495,
    "low": 14.95,
    "low_with_modifiers": 14.95,
    "low_formatted": "$14.95",
    "low_formatted_with_modifiers": "$14.95",
    "low_subunits": 1495,
    "regular_high": 14.95,
    "regular_high_with_modifiers": 14.95,
    "regular_high_formatted": "$14.95",
    "regular_high_formatted_with_modifiers": "$14.95",
    "regular_high_subunits": 1495,
    "regular_low": 14.95,
    "regular_low_with_modifiers": 14.95,
    "regular_low_formatted": "$14.95",
    "regular_low_formatted_with_modifiers": "$14.95",
    "regular_low_subunits": 1495
   },
   "on_sale": false,
   "is_alcoholic": false,
   "import_source": null,
   "per_order_max": null,
   "created_date": "2020-08-31T23:43:23+00:00",
   "updated_date": "2022-05-02T00:22:03+00:00",
   "badges": { "low_stock": false, "out_of_stock": false, "on_sale": false },
   "thumbnail": {
    "data": {
     "id": "11eb09bd8ea55946b61d0cc47a2ae6a4",
     "owner_id": "132125474",
     "site_id": "897193261766985705",
     "site_product_image_id": "4",
     "url": "/uploads/1/3/2/1/132125474/s897193261766985705_p150_i4_w1268.jpeg",
     "absolute_url": "https://matko-103991.weebly.com/uploads/1/3/2/1/132125474/s897193261766985705_p150_i4_w1268.jpeg",
     "urls": {
      "80": "/uploads/1/3/2/1/132125474/s897193261766985705_p150_i4_w1268.jpeg?width=80",
      "160": "/uploads/1/3/2/1/132125474/s897193261766985705_p150_i4_w1268.jpeg?width=160",
      "320": "/uploads/1/3/2/1/132125474/s897193261766985705_p150_i4_w1268.jpeg?width=320",
      "640": "/uploads/1/3/2/1/132125474/s897193261766985705_p150_i4_w1268.jpeg?width=640",
      "1268": "/uploads/1/3/2/1/132125474/s897193261766985705_p150_i4_w1268.jpeg"
     },
     "width": 1268,
     "height": 1510,
     "format": "jpeg",
     "created_at": "2020-10-08T23:25:31+00:00",
     "updated_at": "2020-10-08T23:25:31+00:00",
     "absolute_urls": {
      "80": "https://matko-103991.weebly.com/uploads/1/3/2/1/132125474/s897193261766985705_p150_i4_w1268.jpeg?width=80",
      "160": "https://matko-103991.weebly.com/uploads/1/3/2/1/132125474/s897193261766985705_p150_i4_w1268.jpeg?width=160",
      "320": "https://matko-103991.weebly.com/uploads/1/3/2/1/132125474/s897193261766985705_p150_i4_w1268.jpeg?width=320",
      "640": "https://matko-103991.weebly.com/uploads/1/3/2/1/132125474/s897193261766985705_p150_i4_w1268.jpeg?width=640",
      "1268": "https://matko-103991.weebly.com/uploads/1/3/2/1/132125474/s897193261766985705_p150_i4_w1268.jpeg"
     }
    }
   },
   "placeholder_image": {
    "data": {
     "placeholder": true,
     "url": "/images/commerce/store-app/app/universal_product_placeholder.png",
     "absolute_url": "cdn3.editmysite.com/images/commerce/store-app/app/universal_product_placeholder.png"
    }
   }
  },
  {
   "id": "11eaebe53bf6636fb61e0cc47a2ae324",
   "owner_id": "132125474",
   "site_id": "897193261766985705",
   "site_product_id": "154",
   "visibility": "visible",
   "visibility_tl": "Visible",
   "visibility_locked": false,
   "name": "Flaming Chicken Bowl",
   "short_description": "Soft and juicy chicken cooked in our special spicy sauce. Select your choice of base, Banchan(Korean side dish), topping and sauce.",
   "variation_type": "3",
   "product_type": "food",
   "product_type_details": [],
   "taxable": true,
   "required_feature_to_sell": null,
   "min_prep_time": null,
   "min_prep_time_duration_iso8601": null,
   "site_shipping_box_id": null,
   "site_link": "product/flaming-chicken-bowl/154",
   "permalink": null,
   "seo_page_description": null,
   "seo_page_title": null,
   "seo_product_image_id": null,
   "og_title": null,
   "og_description": null,
   "avg_rating": null,
   "avg_rating_all": null,
   "inventory": {
    "total": 0,
    "lowest": 0,
    "enabled": false,
    "marked_sold_out_at_all_existing_locations": false,
    "marked_sold_out_skus_count": 0
   },
   "measurement_unit_abbreviation": null,
   "price": {
    "high": 13.95,
    "high_with_modifiers": 13.95,
    "high_formatted": "$13.95",
    "high_formatted_with_modifiers": "$13.95",
    "high_subunits": 1395,
    "low": 13.95,
    "low_with_modifiers": 13.95,
    "low_formatted": "$13.95",
    "low_formatted_with_modifiers": "$13.95",
    "low_subunits": 1395,
    "regular_high": 13.95,
    "regular_high_with_modifiers": 13.95,
    "regular_high_formatted": "$13.95",
    "regular_high_formatted_with_modifiers": "$13.95",
    "regular_high_subunits": 1395,
    "regular_low": 13.95,
    "regular_low_with_modifiers": 13.95,
    "regular_low_formatted": "$13.95",
    "regular_low_formatted_with_modifiers": "$13.95",
    "regular_low_subunits": 1395
   },
   "on_sale": false,
   "is_alcoholic": false,
   "import_source": null,
   "per_order_max": null,
   "created_date": "2020-08-31T23:53:57+00:00",
   "updated_date": "2022-05-02T00:41:17+00:00",
   "badges": { "low_stock": false, "out_of_stock": false, "on_sale": false },
   "thumbnail": {
    "data": {
     "id": "11eaebe53e94867bb61e0cc47a2ae324",
     "owner_id": "132125474",
     "site_id": "897193261766985705",
     "site_product_image_id": "1",
     "url": "/uploads/1/3/2/1/132125474/s897193261766985705_p154_i1_w3190.jpeg?width=2560",
     "absolute_url": "https://matko-103991.weebly.com/uploads/1/3/2/1/132125474/s897193261766985705_p154_i1_w3190.jpeg?width=2560",
     "urls": {
      "2560": "/uploads/1/3/2/1/132125474/s897193261766985705_p154_i1_w3190.jpeg?width=2560",
      "1280": "/uploads/1/3/2/1/132125474/s897193261766985705_p154_i1_w3190.jpeg?width=1280",
      "640": "/uploads/1/3/2/1/132125474/s897193261766985705_p154_i1_w3190.jpeg?width=640",
      "320": "/uploads/1/3/2/1/132125474/s897193261766985705_p154_i1_w3190.jpeg?width=320",
      "160": "/uploads/1/3/2/1/132125474/s897193261766985705_p154_i1_w3190.jpeg?width=160",
      "80": "/uploads/1/3/2/1/132125474/s897193261766985705_p154_i1_w3190.jpeg?width=80"
     },
     "width": 3190,
     "height": 2624,
     "format": "jpeg",
     "created_at": "2020-08-31T23:54:01+00:00",
     "updated_at": "2020-08-31T23:54:01+00:00",
     "absolute_urls": {
      "2560": "https://matko-103991.weebly.com/uploads/1/3/2/1/132125474/s897193261766985705_p154_i1_w3190.jpeg?width=2560",
      "1280": "https://matko-103991.weebly.com/uploads/1/3/2/1/132125474/s897193261766985705_p154_i1_w3190.jpeg?width=1280",
      "640": "https://matko-103991.weebly.com/uploads/1/3/2/1/132125474/s897193261766985705_p154_i1_w3190.jpeg?width=640",
      "320": "https://matko-103991.weebly.com/uploads/1/3/2/1/132125474/s897193261766985705_p154_i1_w3190.jpeg?width=320",
      "160": "https://matko-103991.weebly.com/uploads/1/3/2/1/132125474/s897193261766985705_p154_i1_w3190.jpeg?width=160",
      "80": "https://matko-103991.weebly.com/uploads/1/3/2/1/132125474/s897193261766985705_p154_i1_w3190.jpeg?width=80"
     }
    }
   },
   "placeholder_image": {
    "data": {
     "placeholder": true,
     "url": "/images/commerce/store-app/app/universal_product_placeholder.png",
     "absolute_url": "cdn3.editmysite.com/images/commerce/store-app/app/universal_product_placeholder.png"
    }
   }
  },
  {
   "id": "11eaebe55fb183c3b61e0cc47a2ae324",
   "owner_id": "132125474",
   "site_id": "897193261766985705",
   "site_product_id": "156",
   "visibility": "visible",
   "visibility_tl": "Visible",
   "visibility_locked": false,
   "name": "Soft Tofu Kimchi (Vegan, Gluten Free) Bowl",
   "short_description": "Soft tofu cooked in special Kimchi sauce. \nSelect your choice of base, Banchan(Korean side dish), topping and sauce.",
   "variation_type": "3",
   "product_type": "food",
   "product_type_details": {
    "calorie_count": "",
    "dietary_preferences": ["vegan", "gluten-free"],
    "dietary_preferences_tl": ["Vegan", "Gluten-free"],
    "ingredients": [],
    "ingredients_tl": []
   },
   "taxable": true,
   "required_feature_to_sell": null,
   "min_prep_time": null,
   "min_prep_time_duration_iso8601": null,
   "site_shipping_box_id": null,
   "site_link": "product/soft-tofu-kimchi-vegan-gluten-free-bowl/156",
   "permalink": null,
   "seo_page_description": null,
   "seo_page_title": null,
   "seo_product_image_id": null,
   "og_title": null,
   "og_description": null,
   "avg_rating": null,
   "avg_rating_all": null,
   "inventory": {
    "total": 0,
    "lowest": 0,
    "enabled": false,
    "marked_sold_out_at_all_existing_locations": false,
    "marked_sold_out_skus_count": 0
   },
   "measurement_unit_abbreviation": null,
   "price": {
    "high": 12.95,
    "high_with_modifiers": 12.95,
    "high_formatted": "$12.95",
    "high_formatted_with_modifiers": "$12.95",
    "high_subunits": 1295,
    "low": 12.95,
    "low_with_modifiers": 12.95,
    "low_formatted": "$12.95",
    "low_formatted_with_modifiers": "$12.95",
    "low_subunits": 1295,
    "regular_high": 12.95,
    "regular_high_with_modifiers": 12.95,
    "regular_high_formatted": "$12.95",
    "regular_high_formatted_with_modifiers": "$12.95",
    "regular_high_subunits": 1295,
    "regular_low": 12.95,
    "regular_low_with_modifiers": 12.95,
    "regular_low_formatted": "$12.95",
    "regular_low_formatted_with_modifiers": "$12.95",
    "regular_low_subunits": 1295
   },
   "on_sale": false,
   "is_alcoholic": false,
   "import_source": null,
   "per_order_max": null,
   "created_date": "2020-08-31T23:54:57+00:00",
   "updated_date": "2021-10-24T01:59:18+00:00",
   "badges": { "low_stock": false, "out_of_stock": false, "on_sale": false },
   "thumbnail": {
    "data": {
     "id": "11eb09be8c615f17b61d0cc47a2ae6a4",
     "owner_id": "132125474",
     "site_id": "897193261766985705",
     "site_product_image_id": "3",
     "url": "/uploads/1/3/2/1/132125474/s897193261766985705_p156_i3_w1365.png",
     "absolute_url": "https://matko-103991.weebly.com/uploads/1/3/2/1/132125474/s897193261766985705_p156_i3_w1365.png",
     "urls": {
      "80": "/uploads/1/3/2/1/132125474/s897193261766985705_p156_i3_w1365.png?width=80",
      "160": "/uploads/1/3/2/1/132125474/s897193261766985705_p156_i3_w1365.png?width=160",
      "320": "/uploads/1/3/2/1/132125474/s897193261766985705_p156_i3_w1365.png?width=320",
      "640": "/uploads/1/3/2/1/132125474/s897193261766985705_p156_i3_w1365.png?width=640",
      "1280": "/uploads/1/3/2/1/132125474/s897193261766985705_p156_i3_w1365.png?width=1280",
      "1365": "/uploads/1/3/2/1/132125474/s897193261766985705_p156_i3_w1365.png"
     },
     "width": 1365,
     "height": 1253,
     "format": "png",
     "created_at": "2020-10-08T23:32:36+00:00",
     "updated_at": "2020-10-08T23:32:37+00:00",
     "absolute_urls": {
      "80": "https://matko-103991.weebly.com/uploads/1/3/2/1/132125474/s897193261766985705_p156_i3_w1365.png?width=80",
      "160": "https://matko-103991.weebly.com/uploads/1/3/2/1/132125474/s897193261766985705_p156_i3_w1365.png?width=160",
      "320": "https://matko-103991.weebly.com/uploads/1/3/2/1/132125474/s897193261766985705_p156_i3_w1365.png?width=320",
      "640": "https://matko-103991.weebly.com/uploads/1/3/2/1/132125474/s897193261766985705_p156_i3_w1365.png?width=640",
      "1280": "https://matko-103991.weebly.com/uploads/1/3/2/1/132125474/s897193261766985705_p156_i3_w1365.png?width=1280",
      "1365": "https://matko-103991.weebly.com/uploads/1/3/2/1/132125474/s897193261766985705_p156_i3_w1365.png"
     }
    }
   },
   "placeholder_image": {
    "data": {
     "placeholder": true,
     "url": "/images/commerce/store-app/app/universal_product_placeholder.png",
     "absolute_url": "cdn3.editmysite.com/images/commerce/store-app/app/universal_product_placeholder.png"
    }
   }
  }
 ],
 "meta": {
  "pagination": {
   "total": 46,
   "count": 4,
   "per_page": 4,
   "current_page": 1,
   "total_pages": 12,
   "links": {
    "next": "https://cdn5.editmysite.com/app/store/api/v18/editor/users/132125474/sites/897193261766985705/store-locations/11ea8fb9d3ea905d90d30cc47a2ae324/products?page=2"
   }
  }
 }
}
